VIH y la SOCIEDAD
…
unionpromedios <- full_join(x = promedioAntiguos, y = promedioNuevos)

## Joining, by = c("Grupo_Riesgo", "Sexo", "Año")

unionpromedios

## # A tibble: 24 × 3
## # Groups:   Grupo_Riesgo [8]
##    Grupo_Riesgo                                              Sexo    Año
##    <chr>                                                     <chr> <dbl>
##  1 Receptores de hemoderivados                               H      1990
##  2 Receptores de transfusión                                 H      1991
##  3 Receptores de transfusión                                 M      1991
##  4 Hijo de madre a riesgo                                    H      1993
##  5 Hijo de madre a riesgo                                    M      1994
##  6 Receptores de hemoderivados                               M      1994
##  7 Personas que se inyectan drogas / Varones homo/bisexuales H      1995
##  8 Personas que se inyectan drogas                           H      1996
##  9 Personas que se inyectan drogas                           M      1996
## 10 Varones homosexuales / bisexuales                         H      1997
## # … with 14 more rows
…
